{
  "extends": ["tslint:latest", "tslint-config-prettier"],
  "rules": {
    "class-name": true,
    "no-console": false,
    "no-submodule-imports": false,
    "ordered-imports": false,
    "object-literal-sort-keys": false,
    "comment-format": [true, "check-space"],
    "indent": [true, "spaces"],
    "one-line": [true, "check-open-brace", "check-whitespace"],
    "no-var-keyword": true,
    "quotemark": [true, "double", "avoid-escape"],
    "semicolon": [true, "always", "ignore-bound-class-methods"],
    "variable-name": [
      true,
      "ban-keywords",
      "check-format",
      "allow-pascal-case",
      "allow-leading-underscore"
    ],
    "whitespace": [
      true,
      "check-branch",
      "check-decl",
      "check-operator",
      "check-module",
      "check-separator",
      "check-type"
    ],
    "typedef-whitespace": [
      true,
      {
        "call-signature": "nospace",
        "index-signature": "nospace",
        "parameter": "nospace",
        "property-declaration": "nospace",
        "variable-declaration": "nospace"
      },
      {
        "call-signature": "onespace",
        "index-signature": "onespace",
        "parameter": "onespace",
        "property-declaration": "onespace",
        "variable-declaration": "onespace"
      }
    ],
    "no-internal-module": true,
    "no-trailing-whitespace": true,
    "prefer-const": true,
    "jsdoc-format": true
  }
}
